[gd_resource type="TileSet" load_steps=3 format=3 uid="uid://547wyq7nehm0"]

[ext_resource type="Texture2D" uid="uid://ckcocwuq2h3p2" path="res://Tiles/TileSet.png" id="1_f3t06"]

[sub_resource type="TileSetAtlasSource" id="TileSetAtlasSource_f7pl0"]
texture = ExtResource("1_f3t06")
texture_region_size = Vector2i(32, 32)
0:0/0 = 0
0:0/0/physics_layer_0/linear_velocity = Vector2(0, 0)
0:0/0/physics_layer_0/angular_velocity = 0.0
1:0/0 = 0
1:0/0/physics_layer_0/linear_velocity = Vector2(0, 0)
1:0/0/physics_layer_0/angular_velocity = 0.0
2:0/0 = 0
2:0/0/physics_layer_0/linear_velocity = Vector2(0, 0)
2:0/0/physics_layer_0/angular_velocity = 0.0
3:0/0 = 0
3:0/0/physics_layer_0/linear_velocity = Vector2(0, 0)
3:0/0/physics_layer_0/angular_velocity = 0.0
0:1/0 = 0
0:1/0/physics_layer_0/linear_velocity = Vector2(0, 0)
0:1/0/physics_layer_0/angular_velocity = 0.0
1:1/0 = 0
1:1/0/physics_layer_0/linear_velocity = Vector2(0, 0)
1:1/0/physics_layer_0/angular_velocity = 0.0
2:1/0 = 0
2:1/0/physics_layer_0/linear_velocity = Vector2(0, 0)
2:1/0/physics_layer_0/angular_velocity = 0.0
3:1/0 = 0
3:1/0/physics_layer_0/linear_velocity = Vector2(0, 0)
3:1/0/physics_layer_0/angular_velocity = 0.0
0:2/0 = 0
0:2/0/physics_layer_0/linear_velocity = Vector2(0, 0)
0:2/0/physics_layer_0/angular_velocity = 0.0
1:2/0 = 0
1:2/0/physics_layer_0/linear_velocity = Vector2(0, 0)
1:2/0/physics_layer_0/angular_velocity = 0.0
2:2/0 = 0
2:2/0/physics_layer_0/linear_velocity = Vector2(0, 0)
2:2/0/physics_layer_0/angular_velocity = 0.0
3:2/0 = 0
3:2/0/physics_layer_0/linear_velocity = Vector2(0, 0)
3:2/0/physics_layer_0/angular_velocity = 0.0
0:3/0 = 0
0:3/0/physics_layer_0/linear_velocity = Vector2(0, 0)
0:3/0/physics_layer_0/angular_velocity = 0.0
1:3/0 = 0
1:3/0/physics_layer_0/linear_velocity = Vector2(0, 0)
1:3/0/physics_layer_0/angular_velocity = 0.0
2:3/0 = 0
2:3/0/physics_layer_0/linear_velocity = Vector2(0, 0)
2:3/0/physics_layer_0/angular_velocity = 0.0
3:3/0 = 0
3:3/0/physics_layer_0/linear_velocity = Vector2(0, 0)
3:3/0/physics_layer_0/angular_velocity = 0.0
0:4/0 = 0
0:4/0/physics_layer_0/linear_velocity = Vector2(0, 0)
0:4/0/physics_layer_0/angular_velocity = 0.0
1:4/0 = 0
1:4/0/physics_layer_0/linear_velocity = Vector2(0, 0)
1:4/0/physics_layer_0/angular_velocity = 0.0
2:4/0 = 0
2:4/0/physics_layer_0/linear_velocity = Vector2(0, 0)
2:4/0/physics_layer_0/angular_velocity = 0.0
3:4/0 = 0
3:4/0/physics_layer_0/linear_velocity = Vector2(0, 0)
3:4/0/physics_layer_0/angular_velocity = 0.0
0:5/0 = 0
0:5/0/physics_layer_0/linear_velocity = Vector2(0, 0)
0:5/0/physics_layer_0/angular_velocity = 0.0
1:5/0 = 0
1:5/0/physics_layer_0/linear_velocity = Vector2(0, 0)
1:5/0/physics_layer_0/angular_velocity = 0.0
2:5/0 = 0
2:5/0/physics_layer_0/linear_velocity = Vector2(0, 0)
2:5/0/physics_layer_0/angular_velocity = 0.0
3:5/0 = 0
3:5/0/physics_layer_0/linear_velocity = Vector2(0, 0)
3:5/0/physics_layer_0/angular_velocity = 0.0

[resource]
tile_size = Vector2i(32, 32)
physics_layer_0/collision_layer = 1
sources/2 = SubResource("TileSetAtlasSource_f7pl0")
