[gd_scene load_steps=5 format=3 uid="uid://c0y25lp8cyerj"]

[ext_resource type="Script" path="res://Source/StartScreen.cs" id="1_65ktw"]
[ext_resource type="Texture2D" uid="uid://cjrcoj41ilmt3" path="res://Textures/Background.png" id="1_nwiow"]
[ext_resource type="Texture2D" uid="uid://bitam0hdqyeb5" path="res://Ui/Logo/Logo.png" id="2_4wu53"]
[ext_resource type="FontFile" uid="uid://kd5b7dhhx3dr" path="res://Fonts/Planes_ValMore.ttf" id="3_527d5"]

[node name="StartScreen" type="CanvasLayer" node_paths=PackedStringArray("StartButton", "PressStartLabel", "CreditLabel", "WhiteOutRect")]
follow_viewport_enabled = true
script = ExtResource("1_65ktw")
StartButton = NodePath("StartButton")
PressStartLabel = NodePath("PressStartLabel")
CreditLabel = NodePath("CreditsLabel")
WhiteOutRect = NodePath("WhiteOutRect")

[node name="StartButton" type="Button" parent="."]
top_level = true
anchors_preset = 15
anchor_right = 1.0
anchor_bottom = 1.0
grow_horizontal = 2
grow_vertical = 2

[node name="Background" type="TextureRect" parent="."]
anchors_preset = 15
anchor_right = 1.0
anchor_bottom = 1.0
grow_horizontal = 2
grow_vertical = 2
texture = ExtResource("1_nwiow")

[node name="Logo" type="TextureRect" parent="."]
anchors_preset = -1
anchor_left = 0.2
anchor_top = 0.2
anchor_right = 0.8
anchor_bottom = 0.6
grow_horizontal = 2
grow_vertical = 2
size_flags_horizontal = 3
size_flags_vertical = 3
texture = ExtResource("2_4wu53")
stretch_mode = 5

[node name="LogoLabel" type="Label" parent="Logo"]
layout_mode = 1
anchors_preset = -1
anchor_left = 0.25
anchor_top = 0.545
anchor_right = 0.77
anchor_bottom = 0.775
theme_override_fonts/font = ExtResource("3_527d5")
theme_override_font_sizes/font_size = 64
text = "Soul Food"
horizontal_alignment = 1
vertical_alignment = 2

[node name="PressStartLabel" type="Label" parent="."]
anchors_preset = -1
anchor_left = 0.275
anchor_top = 0.7
anchor_right = 0.744
anchor_bottom = 0.8
offset_left = 40.0
offset_top = -3.05176e-05
offset_right = -39.32
grow_horizontal = 2
grow_vertical = 0
theme_override_fonts/font = ExtResource("3_527d5")
theme_override_font_sizes/font_size = 45
text = "Press Any Button To Apply"
horizontal_alignment = 1
vertical_alignment = 1

[node name="CreditsLabel" type="Label" parent="."]
anchors_preset = -1
anchor_top = 0.878
anchor_right = 1.0
anchor_bottom = 1.0
grow_vertical = 0
theme_override_fonts/font = ExtResource("3_527d5")
theme_override_font_sizes/font_size = 18
text = "Solo Project by Mads F. Sønderstrup | Music by Christoffer Krakou | Asset Pack by Grafpix | 
Additional Icons by game-icons.net | Light Programming Assistance by Andreas Feldstedt | Esquire Generic Font by Mark Thompson"
horizontal_alignment = 1
vertical_alignment = 1
autowrap_mode = 3

[node name="StartTimer" type="Timer" parent="."]
wait_time = 2.0
one_shot = true
autostart = true

[node name="WhiteOutRect" type="ColorRect" parent="."]
anchors_preset = 15
anchor_right = 1.0
anchor_bottom = 1.0
grow_horizontal = 2
grow_vertical = 2
color = Color(1, 1, 1, 0)

[connection signal="pressed" from="StartButton" to="." method="OnStartButtonPressed"]
[connection signal="timeout" from="StartTimer" to="." method="OnStartTimerTimeout"]
